{
  "project_info": {
    "project_number": "1002579006921",
    "firebase_url": "https://mobilesrpd-c5b79.firebaseio.com",
    "project_id": "mobilesrpd-c5b79",
    "storage_bucket": "mobilesrpd-c5b79.appspot.com"
  },
  "client": [
    {
      "client_info": {
        "mobilesdk_app_id": "1:1002579006921:android:7a191fbb405be6c4",
        "android_client_info": {
          "package_name": "com.malz.adrian.mobilesrpd"
        }
      },
      "oauth_client": [
        {
          "client_id": "1002579006921-plkccukv3seau30mvu6mdinl3mgmfmq2.apps.googleusercontent.com",
          "client_type": 3
        }
      ],
      "api_key": [
        {
          "current_key": "AIzaSyCfOTgMyufATZyLD6xINCD3wjPFJf8T6oo"
        }
      ],
      "services": {
        "analytics_service": {
          "status": 1
        },
        "appinvite_service": {
          "status": 1,
          "other_platform_oauth_client": []
        },
        "ads_service": {
          "status": 2
        }
      }
    }
  ],
  "configuration_version": "1"
}